module gitlab.com/market/mk_go_load_service

go 1.19

require (
	github.com/dgrijalva/jwt-go v3.2.0+incompatible
	github.com/gin-gonic/gin v1.9.1
	github.com/google/uuid v1.3.1
	github.com/jackc/pgx/v4 v4.18.1
	github.com/joho/godotenv v1.5.1
	github.com/spf13/cast v1.5.1
	github.com/streamingfast/logging v0.0.0-20230608130331-f22c91403091
	go.uber.org/zap v1.25.0
	golang.org/x/crypto v0.12.0
	google.golang.org/grpc v1.57.0
	google.golang.org/protobuf v1.31.0
)

require (
	github.com/blendle/zapdriver v1.3.1 // indirect
	github.com/bytedance/sonic v1.9.1 // indirect
	github.com/chenzhuoyu/base64x v0.0.0-20221115062448-fe3a3abad311 // indirect
	github.com/gabriel-vasile/mimetype v1.4.2 // indirect
	github.com/gin-contrib/sse v0.1.0 // indirect
	github.com/go-playground/locales v0.14.1 // indirect
	github.com/go-playground/universal-translator v0.18.1 // indirect
	github.com/go-playground/validator/v10 v10.14.0 // indirect
	github.com/goccy/go-json v0.10.2 // indirect
	github.com/golang/protobuf v1.5.3 // indirect
	github.com/jackc/chunkreader/v2 v2.0.1 // indirect
	github.com/jackc/pgconn v1.14.0 // indirect
	github.com/jackc/pgio v1.0.0 // indirect
	github.com/jackc/pgpassfile v1.0.0 // indirect
	github.com/jackc/pgproto3/v2 v2.3.2 // indirect
	github.com/jackc/pgservicefile v0.0.0-20221227161230-091c0ba34f0a // indirect
	github.com/jackc/pgtype v1.14.0 // indirect
	github.com/jackc/puddle v1.3.0 // indirect
	github.com/json-iterator/go v1.1.12 // indirect
	github.com/klauspost/cpuid/v2 v2.2.4 // indirect
	github.com/leodido/go-urn v1.2.4 // indirect
	github.com/logrusorgru/aurora v2.0.3+incompatible // indirect
	github.com/mattn/go-isatty v0.0.19 // indirect
	github.com/mitchellh/go-testing-interface v1.14.1 // indirect
	github.com/modern-go/concurrent v0.0.0-20180306012644-bacd9c7ef1dd // indirect
	github.com/modern-go/reflect2 v1.0.2 // indirect
	github.com/pelletier/go-toml/v2 v2.0.8 // indirect
	github.com/twitchyliquid64/golang-asm v0.15.1 // indirect
	github.com/ugorji/go/codec v1.2.11 // indirect
	go.uber.org/multierr v1.10.0 // indirect
	golang.org/x/arch v0.3.0 // indirect
	golang.org/x/net v0.10.0 // indirect
	golang.org/x/sys v0.11.0 // indirect
	golang.org/x/term v0.11.0 // indirect
	golang.org/x/text v0.12.0 // indirect
	google.golang.org/genproto/googleapis/rpc v0.0.0-20230525234030-28d5490b6b19 // indirect
	gopkg.in/yaml.v3 v3.0.1 // indirect
)
